<?xml version="1.0" encoding="UTF-8" standalone="no"?>
<svg
   xmlns:dc="http://purl.org/dc/elements/1.1/"
   xmlns:cc="http://creativecommons.org/ns#"
   xmlns:rdf="http://www.w3.org/1999/02/22-rdf-syntax-ns#"
   xmlns:svg="http://www.w3.org/2000/svg"
   xmlns="http://www.w3.org/2000/svg"
   id="svg63208"
   version="1.1"
   viewBox="0 0 31.749999 6.8791668">
  <defs
     id="defs63202">
    <clipPath
       id="clipPath62742"
       clipPathUnits="userSpaceOnUse">
      <path
         id="path62740"
         d="M 0,0 H 595.276 V 841.89 H 0 Z" />
    </clipPath>
    <clipPath
       id="clipPath62726"
       clipPathUnits="userSpaceOnUse">
      <path
         id="path62724"
         d="M 0,0 H 595.276 V 841.89 H 0 Z" />
    </clipPath>
    <clipPath
       id="clipPath63196"
       clipPathUnits="userSpaceOnUse">
      <path
         id="path63194"
         d="M 0,0 H 595.276 V 841.89 H 0 Z" />
    </clipPath>
    <clipPath
       id="clipPath63180"
       clipPathUnits="userSpaceOnUse">
      <path
         id="path63178"
         d="M 0,0 H 595.276 V 841.89 H 0 Z" />
    </clipPath>
    <clipPath
       id="clipPath63164"
       clipPathUnits="userSpaceOnUse">
      <path
         id="path63162"
         d="M 0,0 H 595.276 V 841.89 H 0 Z" />
    </clipPath>
    <clipPath
       id="clipPath63148"
       clipPathUnits="userSpaceOnUse">
      <path
         id="path63146"
         d="M 0,0 H 595.276 V 841.89 H 0 Z" />
    </clipPath>
    <clipPath
       id="clipPath63132"
       clipPathUnits="userSpaceOnUse">
      <path
         id="path63130"
         d="M 0,0 H 595.276 V 841.89 H 0 Z" />
    </clipPath>
    <clipPath
       id="clipPath63116"
       clipPathUnits="userSpaceOnUse">
      <path
         id="path63114"
         d="M 0,0 H 595.276 V 841.89 H 0 Z" />
    </clipPath>
    <clipPath
       id="clipPath63100"
       clipPathUnits="userSpaceOnUse">
      <path
         id="path63098"
         d="M 0,0 H 595.276 V 841.89 H 0 Z" />
    </clipPath>
    <clipPath
       id="clipPath63084"
       clipPathUnits="userSpaceOnUse">
      <path
         id="path63082"
         d="M 0,0 H 595.276 V 841.89 H 0 Z" />
    </clipPath>
    <clipPath
       id="clipPath62742-8"
       clipPathUnits="userSpaceOnUse">
      <path
         id="path62740-3"
         d="M 0,0 H 595.276 V 841.89 H 0 Z" />
    </clipPath>
    <clipPath
       id="clipPath62726-7"
       clipPathUnits="userSpaceOnUse">
      <path
         id="path62724-1"
         d="M 0,0 H 595.276 V 841.89 H 0 Z" />
    </clipPath>
    <clipPath
       id="clipPath62882"
       clipPathUnits="userSpaceOnUse">
      <path
         id="path62880"
         d="M 0,0 H 595.276 V 841.89 H 0 Z" />
    </clipPath>
    <clipPath
       id="clipPath62834"
       clipPathUnits="userSpaceOnUse">
      <path
         id="path62832"
         d="M 0,0 H 595.276 V 841.89 H 0 Z" />
    </clipPath>
    <clipPath
       id="clipPath62898"
       clipPathUnits="userSpaceOnUse">
      <path
         id="path62896"
         d="M 0,0 H 595.276 V 841.89 H 0 Z" />
    </clipPath>
    <clipPath
       id="clipPath62850"
       clipPathUnits="userSpaceOnUse">
      <path
         id="path62848"
         d="M 0,0 H 595.276 V 841.89 H 0 Z" />
    </clipPath>
  </defs>
  <metadata
     id="metadata63205">
    <rdf:RDF>
      <cc:Work
         rdf:about="">
        <dc:format>image/svg+xml</dc:format>
        <dc:type
           rdf:resource="http://purl.org/dc/dcmitype/StillImage" />
        <dc:title></dc:title>
      </cc:Work>
    </rdf:RDF>
  </metadata>
  <g
     transform="translate(0,-290.12082)"
     id="layer1">
    <g
       transform="matrix(0.35277777,0,0,-0.35277777,0.4971621,292.01551)"
       id="g62752">
      <path
         id="path62754"
         style="fill:none;stroke:#6d6e71;stroke-width:0.96799999;stroke-linecap:butt;stroke-linejoin:miter;stroke-miterlimit:4;stroke-dasharray:none;stroke-opacity:1"
         d="M 0,0 H 87.591" />
    </g>
    <g
       transform="matrix(0.35277777,0,0,-0.35277777,0.4471744,293.31567)"
       id="g62764">
      <path
         id="path62766"
         style="fill:none;stroke:#6d6e71;stroke-width:0.96799999;stroke-linecap:butt;stroke-linejoin:miter;stroke-miterlimit:4;stroke-dasharray:none;stroke-opacity:1"
         d="M 0,0 H 87.591" />
    </g>
    <g
       transform="matrix(0.35277777,0,0,-0.35277777,2.7971665,293.31567)"
       id="g62776">
      <path
         id="path62778"
         style="fill:none;stroke:#939598;stroke-width:3;stroke-linecap:butt;stroke-linejoin:miter;stroke-miterlimit:4;stroke-dasharray:none;stroke-opacity:1"
         d="M 0,0 H 17.433" />
    </g>
    <g
       transform="matrix(0.35277777,0,0,-0.35277777,27.897163,293.31567)"
       id="g62780">
      <path
         id="path62782"
         style="fill:none;stroke:#939598;stroke-width:3;stroke-linecap:butt;stroke-linejoin:miter;stroke-miterlimit:4;stroke-dasharray:none;stroke-opacity:1"
         d="M 0,0 H -17.433" />
    </g>
    <g
       transform="matrix(0.35277777,0,0,-0.35277777,8.9471415,292.01551)"
       id="g62804">
      <path
         id="path62806"
         style="fill:none;stroke:#939598;stroke-width:3;stroke-linecap:butt;stroke-linejoin:miter;stroke-miterlimit:4;stroke-dasharray:none;stroke-opacity:1"
         d="M 0,0 H 17.433" />
    </g>
    <g
       transform="matrix(0.35277777,0,0,-0.35277777,21.747154,292.01551)"
       id="g62816">
      <path
         id="path62818"
         style="fill:none;stroke:#939598;stroke-width:3;stroke-linecap:butt;stroke-linejoin:miter;stroke-miterlimit:4;stroke-dasharray:none;stroke-opacity:1"
         d="M 0,0 H -17.433" />
    </g>
    <g
       transform="matrix(0.35277777,0,0,-0.35277777,18.853564,294.571)"
       id="g62840">
      <path
         id="path62842"
         style="fill:none;stroke:#204575;stroke-width:1;stroke-linecap:butt;stroke-linejoin:miter;stroke-miterlimit:1;stroke-dasharray:none;stroke-opacity:1"
         d="M 0,0 V -2.552 H 10.476" />
    </g>
    <g
       id="g62844"
       transform="matrix(0.35277777,0,0,-0.35277777,-151.44451,354.07399)">
      <g
         clip-path="url(#clipPath62850)"
         id="g62846">
        <g
           transform="translate(498.6724,166.1182)"
           id="g62852">
          <path
             id="path62854"
             style="fill:#204575;fill-opacity:1;fill-rule:nonzero;stroke:none"
             d="m 0,0 -7.012,2.552 c 0,0 1.55,-2.552 0,-5.104 L 0,0" />
        </g>
      </g>
    </g>
    <g
       transform="matrix(0.35277777,0,0,-0.35277777,12.594018,294.571)"
       id="g62888">
      <path
         id="path62890"
         style="fill:none;stroke:#204575;stroke-width:1;stroke-linecap:butt;stroke-linejoin:miter;stroke-miterlimit:1;stroke-dasharray:none;stroke-opacity:1"
         d="M 0,0 V -2.552 H -10.476" />
    </g>
    <g
       id="g62892"
       transform="matrix(0.35277777,0,0,-0.35277777,-151.44451,354.07399)">
      <g
         clip-path="url(#clipPath62898)"
         id="g62894">
        <g
           transform="translate(449.0534,166.1182)"
           id="g62900">
          <path
             id="path62902"
             style="fill:#204575;fill-opacity:1;fill-rule:nonzero;stroke:none"
             d="m 0,0 7.012,2.552 c 0,0 -1.55,-2.552 0,-5.104 L 0,0" />
        </g>
      </g>
    </g>
  </g>
</svg>
