<?xml version="1.0" encoding="UTF-8" standalone="no"?>
<svg
   xmlns:dc="http://purl.org/dc/elements/1.1/"
   xmlns:cc="http://creativecommons.org/ns#"
   xmlns:rdf="http://www.w3.org/1999/02/22-rdf-syntax-ns#"
   xmlns:svg="http://www.w3.org/2000/svg"
   xmlns="http://www.w3.org/2000/svg"
   id="svg965"
   version="1.1"
   viewBox="0 0 16.933333 5.2916668">
  <defs
     id="defs959">
    <clipPath
       clipPathUnits="userSpaceOnUse"
       id="clipPath62834">
      <path
         d="M 0,0 H 595.276 V 841.89 H 0 Z"
         id="path62832" />
    </clipPath>
  </defs>
  <metadata
     id="metadata962">
    <rdf:RDF>
      <cc:Work
         rdf:about="">
        <dc:format>image/svg+xml</dc:format>
        <dc:type
           rdf:resource="http://purl.org/dc/dcmitype/StillImage" />
        <dc:title></dc:title>
      </cc:Work>
    </rdf:RDF>
  </metadata>
  <g
     transform="translate(0,-291.70831)"
     id="layer1">
    <g
       transform="matrix(1.0197466,0,0,-1.0197466,0.58234134,291.7654)"
       id="g62824">
      <path
         id="path62826"
         style="fill:none;stroke:#204575;stroke-width:1;stroke-linecap:butt;stroke-linejoin:miter;stroke-miterlimit:1;stroke-dasharray:none;stroke-opacity:1"
         d="M 0,0 V -2.552 H 10.476" />
    </g>
    <g
       id="g62828"
       transform="matrix(1.0197466,0,0,-1.0197466,-491.68487,491.55709)">
      <g
         clip-path="url(#clipPath62834)"
         id="g62830">
        <g
           transform="translate(498.6724,193.3711)"
           id="g62836">
          <path
             id="path62838"
             style="fill:#204575;fill-opacity:1;fill-rule:nonzero;stroke:none"
             d="m 0,0 -7.012,2.552 c 0,0 1.55,-2.552 0,-5.104 L 0,0" />
        </g>
      </g>
    </g>
  </g>
</svg>
